Exercise 03: Explore and Wrangle Data
…
# we need to remove the rows from the dataset where the diet_strategy is N/A for this
# Using subsetting

d2 <- d1[!is.na(d1$diet_strategy), ]

d2

# A tibble: 39 × 28
   Scientific_Name         Family          Genus  Species Brain_Size_Species_M…¹
   <chr>                   <chr>           <chr>  <chr>                    <dbl>
 1 Alouatta_caraya         Atelidae        Aloua… caraya                   52.6 
 2 Alouatta_palliata       Atelidae        Aloua… pallia…                  49.9 
 3 Alouatta_seniculus      Atelidae        Aloua… senicu…                  55.2 
 4 Ateles_geoffroyi        Atelidae        Ateles geoffr…                 105.  
 5 Brachyteles_arachnoides Atelidae        Brach… arachn…                 117.  
 6 Callithrix_jacchus      Cebidae         Calli… jacchus                   7.24
 7 Cebus_capucinus         Cebidae         Cebus  capuci…                  72.9 
 8 Cercopithecus_ascanius  Cercopithecidae Cerco… ascani…                  59.6 
 9 Cercopithecus_diana     Cercopithecidae Cerco… diana                    62.6 
10 Cercopithecus_mitis     Cercopithecidae Cerco… mitis                    71.3 
# ℹ 29 more rows
# ℹ abbreviated name: ¹​Brain_Size_Species_Mean
# ℹ 23 more variables: Body_mass_male_mean <dbl>, Body_mass_female_mean <dbl>,
#   MeanGroupSize <dbl>, AdultMales <dbl>, AdultFemale <dbl>,
#   GR_MidRangeLat_dd <dbl>, Precip_Mean_mm <dbl>, Temp_Mean_degC <dbl>,
#   HomeRange_km2 <dbl>, DayLength_km <dbl>, Fruit <dbl>, Leaves <chr>,
#   Fauna <chr>, Canine_Dimorphism <dbl>, Feed <dbl>, Move <dbl>, Rest <dbl>, …
…
